<?xml version="1.0" encoding="utf-8"?>
<!-- Generator: Adobe Illustrator 17.0.0, SVG Export Plug-In . SVG Version: 6.00 Build 0)  -->
<!DOCTYPE svg PUBLIC "-//W3C//DTD SVG 1.1//EN" "http://www.w3.org/Graphics/SVG/1.1/DTD/svg11.dtd">
<svg version="1.1" id="Camada_1" xmlns="http://www.w3.org/2000/svg" xmlns:xlink="http://www.w3.org/1999/xlink" x="0px" y="0px"
	 width="64.033px" height="64.033px" viewBox="0 0 64.033 64.033" enable-background="new 0 0 64.033 64.033" xml:space="preserve">
<g>
	<circle fill-rule="evenodd" clip-rule="evenodd" fill="#95A2A2" cx="32.016" cy="32.016" r="32.016"/>
	<g>
		<g>
			<path fill-rule="evenodd" clip-rule="evenodd" fill="#4871AD" d="M7.434,0.012h43.227c1.298,0,2.36,1.062,2.36,2.36v53.565
				c0,0.086-0.005,0.17-0.014,0.253c-0.862,0.749-1.766,1.452-2.706,2.107H13.73c-3.438-2.397-6.385-5.45-8.656-8.979V2.372
				C5.074,1.074,6.136,0.012,7.434,0.012z"/>
			<path fill-rule="evenodd" clip-rule="evenodd" fill="#FFFFFF" d="M8.221,3.159h41.654v51.993H9.885
				c-0.576-0.551-1.131-1.125-1.665-1.717V3.159z"/>
			<rect x="12.788" y="6.694" fill-rule="evenodd" clip-rule="evenodd" fill="#6B6B6B" width="23.07" height="2.721"/>
			<path fill-rule="evenodd" clip-rule="evenodd" fill="#6B6B6B" d="M12.788,13.218h32.557v1.361H12.788V13.218L12.788,13.218z
				 M12.788,29.045h24.438v1.361H12.788V29.045L12.788,29.045z M12.788,25.088h32.557v1.361H12.788V25.088L12.788,25.088z
				 M12.788,21.132h32.557v1.361H12.788V21.132L12.788,21.132z M12.788,17.175h32.557v1.361H12.788V17.175z"/>
		</g>
		<g>
			<path fill-rule="evenodd" clip-rule="evenodd" fill="#FFFFFF" d="M40.609,27.962c4.965,0,9.46,2.013,12.714,5.266
				c3.253,3.253,5.266,7.749,5.266,12.713c0,1.699-0.236,3.343-0.677,4.902c-4.848,6.657-12.2,11.372-20.671,12.763
				c-3.614-0.685-6.846-2.452-9.345-4.951c-3.254-3.253-5.266-7.748-5.266-12.713v-1.856h1.856h0.956
				c0.02-0.162,0.043-0.325,0.068-0.487H25.04h-0.555h-1.818l-0.032-1.827l-0.149-8.704l-0.013-0.775l0.542-0.552l2.829-2.878
				l3.112-3.165l0.057,4.442l0.027,2.045c0.969-0.818,2.024-1.534,3.149-2.131C34.703,28.718,37.569,27.962,40.609,27.962z"/>
			<g>
				<path fill-rule="evenodd" clip-rule="evenodd" fill="#6AA882" d="M40.609,29.818c8.905,0,16.123,7.219,16.123,16.123
					c0,3.824-1.332,7.337-3.556,10.1c-2.686,2.367-5.772,4.291-9.144,5.658c-1.103,0.238-2.248,0.365-3.422,0.365
					c-8.904,0-16.123-7.219-16.123-16.123h2.695c0,7.417,6.012,13.429,13.429,13.429c7.417,0,13.429-6.012,13.429-13.429
					c0-7.417-6.012-13.429-13.429-13.429c-5.949,0-10.994,3.87-12.758,9.229H25.04C26.889,34.874,33.158,29.818,40.609,29.818z"/>
				<circle fill-rule="evenodd" clip-rule="evenodd" fill="#FFFFFF" cx="40.609" cy="45.942" r="13.429"/>
				<path fill-rule="evenodd" clip-rule="evenodd" fill="#5E5E5E" d="M41.154,44.303l0,0.012l0,0.012l0,0.012l0,0.012l0,0.012
					l0,0.012l0,0.012l0.002,0.107l0,0.012l0,0.024l0,0.012l0,0.012l0,0.012l0,0.012v0.012l0,0.012l0,0.012l0,0.012v0.012l0,0.012
					l0.002,0.096l0,0.012v0.012l0,0.012l0,0.012v0.012l0,0.012l0,0.012v0.012l0,0.012l0,0.012v0.012l0,0.012l0.002,0.12v0.012
					l0,0.012v0.012l0,0.012v0.012l0.084,0.001h0.012l0.012,0h0.012h0.012l0.012,0h0.012l0.012,0h0.012l0.012,0h0.012l0.012,0h0.012
					l0.166,0.002l0.012,0h0.012l0.012,0h0.012l0.012,0h0.012l0.012,0h0.012l0.012,0l0.012,0l0.13,0.002l0.012,0l0.012,0h0.012
					l0.012,0l0.012,0h0.012l0.012,0l0.012,0h0.012l0.012,0c5.523,0.092,9.77,0.644,9.77,1.312c0,0.732-5.089,1.325-11.371,1.326
					h-0.006h-0.005h-0.008c-0.014,0.001-0.028,0.001-0.042-0.001c-0.969-0.029-1.746-0.82-1.753-1.794l0,0v-0.008v-0.005v-0.006
					c0.001-5.359,0.597-9.7,1.331-9.7C40.501,36.201,41.048,39.705,41.154,44.303z"/>
				<polygon fill-rule="evenodd" clip-rule="evenodd" fill="#6AA882" points="27.49,38.864 36.019,38.864 33.19,41.742 
					24.486,41.742 24.336,33.038 27.165,30.16 27.278,38.864 				"/>
			</g>
		</g>
	</g>
</g>
</svg>
