<svg version="1.1" id="iconServico" xmlns="http://www.w3.org/2000/svg" xmlns:xlink="http://www.w3.org/1999/xlink" x="0px"
	 y="0px" width="380px" height="380px" viewBox="0 0 380 380" style="enable-background:new 0 0 380 380;" xml:space="preserve">
<style type="text/css">
	.st0{fill:#3678A3;}
	.st1{fill:#296896;}
	.st2{fill:#FFFFFF;}
	.st3{fill-rule:evenodd;clip-rule:evenodd;fill:#FFFFFF;}
</style>
<g id="IconTreinamento">
	<path id="Circulo_1_" class="st0" d="M190,0c104.9341,0,190,85.0664,190,190s-85.0659,190-190,190S0,294.9336,0,190S85.066,0,190,0
		L190,0z"/>
	<path id="Sombra_1_" class="st1" d="M375.001,146.5429C378.2671,160.5,380,175.0468,380,190c0,104.9336-85.0659,190-190,190
		c-4.4668,0-8.894-0.1661-13.2836-0.4688l-77.4307-77.4316c6.5127,5.3886,15.7871,1.4043,16.6836-6.6563l3.9887-40.5039
		l-39.7543-39.7539c4.8901,3.8379,11.2441,3.2051,15.0293-2.0469l48.4775,48.4785l-0.4766-13.1152l-48.0332-48.0332l-8.2915-27.4629
		l8.4004-5.334l46.4302,46.4297l-0.2783-7.3515l0.1474-44.5332l17.5508,4.7011L105.44,113.1992
		c8.1777,7.8457,20.062,8.7558,28.9121,2.1836c10.499-7.7989,11.9976-22.9492,3.2519-32.6367l-0.7309-0.7715l25.8877,25.8867
		V93.9336h145.9995l8,8c0-2.1368,0.2275-11.879-0.1797-13.1895l-0.7334-1.3555L375.001,146.5429L375.001,146.5429z"/>
	<path id="Quadro" class="st2" d="M158.7608,85.9336h153.9995c2.209,0,4,1.791,4,4v100.0078c0,2.2089-1.791,4-4,4H158.7608
		c-2.209,0-4-1.7911-4-4v-11.7657l8,2.1426v5.6231h145.9995V93.9336H162.7608v37.3593l-0.3111,0.2539l-7.6889-3.0742v-38.539
		C154.7608,87.7246,156.5518,85.9336,158.7608,85.9336L158.7608,85.9336z"/>
	<path id="Instrutor" class="st3" d="M121.23,75.4336c-12.2348-0.0411-22.1855,9.8437-22.2261,22.08
		c-0.041,12.2344,9.8443,22.1856,22.0791,22.2246c12.2349,0.0411,22.1856-9.8437,22.2261-22.0781
		C143.3501,85.4257,133.4649,75.4746,121.23,75.4336L121.23,75.4336z M141.4288,207.748
		c1.4506,29.1231,2.5229,57.0195,3.2241,86.1484c0.3003,5.3789-3.6934,10.0879-9.107,10.6211
		c-5.5586,0.5469-10.5083-3.5156-11.0551-9.0742l-4.2915-42.709l-0.0728,0.4961l-4.1572,42.2129
		c-0.5469,5.5586-5.4971,9.6211-11.0557,9.0742c-5.3262-0.5254-9.2788-5.0918-9.1177-10.3632
		c-0.2983-27.0723-0.4863-53.9415-0.5629-81.0157c-4.8169,7.2285-15.7759,5.336-18.2442-2.8945l-13.0029-36.832
		c-1.7822-4.3672-0.3067-9.502,3.7148-12.2168l34.7305-29.0235c3.707-3.084,11.5049-5.08,16.1533-5.0644
		c6.936,0.0215,13.1494,2.6367,17.3775,6.7597l28.5893,11.4336l26.6602-21.7832c4.7885-4.2675,11.2802-3.5273,14.8955,0.918
		c3.4922,4.2969,2.8769,10.5918-1.355,14.1328l-28.4155,27.377c-2.4712,2.6523-6.2876,3.8886-10.0342,2.8867l-24.6934-6.6152
		l-0.1474,44.5332C141.4605,207.0859,141.4493,207.4179,141.4288,207.748L141.4288,207.748z M95.3096,167.6718l-8.4004,5.334
		l8.2915,27.4629L95.3096,167.6718L95.3096,167.6718z"/>
	<polygon id="LogoOffice_1_" class="st2" points="233.9911,157.6247 233.9911,122.5641 265.0064,111.102 281.8615,116.4952 
		281.8615,163.6928 265.0064,168.773 233.9911,157.624 265.0064,161.3568 265.0064,120.5417 244.779,125.2612 244.779,152.9056 	"/>
</g>
</svg>
