<svg version="1.1" id="LogoOfficeApp" xmlns="http://www.w3.org/2000/svg" xmlns:xlink="http://www.w3.org/1999/xlink" x="0px"
	 y="0px" width="440px" height="90px" viewBox="0 0 440 90" style="enable-background:new 0 0 440 90;" xml:space="preserve">
<style type="text/css">
	.st0{fill-rule:evenodd;clip-rule:evenodd;fill:#FFFFFF;}
</style>
<g id="logo-palavras">
	<path id="logo-palavras-app" class="st0" d="M331.218,2.4818h4.2418l10.7311,65.9869h-4.6037l-3.3152-20.5504h-28.3583
		l-12.1921,20.5504h-4.7917L331.218,2.4818L331.218,2.4818z M337.7068,43.771l-4.7288-30.5269
		c-0.2517-1.5871-0.4087-3.2683-0.4716-5.0122h-0.1729l-1.524,3.0481L312.176,43.771H337.7068L337.7068,43.771z M359.7825,21.335
		h4.3361c-0.1567,2.2785-0.4714,5.0434-0.9266,8.343c-0.4556,3.2836-0.8173,5.5301-1.0528,6.7558h0.1726
		c2.8911-5.326,5.8918-9.364,9.0184-12.1136c3.1422-2.7493,6.52-4.1162,10.1339-4.1162c4.2106,0,7.384,1.4454,9.5522,4.3203
		c2.1682,2.891,3.2363,7.0702,3.2363,12.5535c0,6.1432-1.2407,11.6736-3.7386,16.6382c-2.4982,4.949-5.9394,8.8297-10.2912,11.6575
		c-4.352,2.8126-9.1596,4.2268-14.4071,4.2268c-3.378,0-6.6773-0.6288-9.8983-1.8854l-4.2519,19.8063h-4.252l10.8451-51.2759
		c0.2514-1.1628,0.5657-3.5507,0.9583-7.149C359.5937,25.483,359.7825,22.906,359.7825,21.335L359.7825,21.335z M356.6561,63.7555
		c2.7652,1.3201,6.033,1.9794,9.8034,1.9794c4.2896,0,8.2485-1.2095,11.8783-3.6292c3.6133-2.4193,6.4425-5.7824,8.4682-10.0547
		c2.0259-4.2727,3.0322-9.0187,3.0322-14.2345c0-4.5411-0.7543-7.9656-2.2782-10.2753c-1.5083-2.3097-3.928-3.4724-7.2431-3.4724
		c-2.3723,0-5.0587,1.2727-8.0753,3.8338c-3.0322,2.5606-5.7192,5.9386-8.0601,10.1492c-2.3411,4.1955-3.9747,8.5467-4.9016,13.0561
		L356.6561,63.7555L356.6561,63.7555z M402.3801,21.335c0,1.571-0.1882,4.148-0.5652,7.7613
		c-0.3926,3.5983-0.7073,5.9862-0.9584,7.149l-10.8454,51.2759h4.252l4.2522-19.8063c3.221,1.2566,6.5206,1.8854,9.8983,1.8854
		c5.2473,0,10.0551-1.4142,14.4071-4.2268c4.3515-2.8278,7.7925-6.7085,10.2909-11.6575c2.4979-4.9646,3.7389-10.495,3.7389-16.6382
		c0-5.4833-1.0684-9.6625-3.2366-12.5535c-2.1679-2.8749-5.3416-4.3203-9.5522-4.3203c-3.6139,0-6.9913,1.3669-10.1335,4.1162
		c-3.1267,2.7496-6.1277,6.7876-9.0187,12.1136h-0.1727c0.2361-1.2257,0.5973-3.4722,1.0528-6.7558
		c0.4553-3.2996,0.7699-6.0645,0.9269-8.343H402.3801L402.3801,21.335z M399.2535,63.7555l2.624-12.6476
		c0.9269-4.5094,2.5608-8.8606,4.9017-13.0561c2.3408-4.2106,5.0278-7.5886,8.06-10.1492c3.0169-2.5611,5.703-3.8338,8.0756-3.8338
		c3.3152,0,5.7348,1.1627,7.2428,3.4724c1.5239,2.3097,2.2782,5.7342,2.2782,10.2753c0,5.2158-1.0057,9.961-3.0322,14.2345
		c-2.0262,4.2729-4.8549,7.6354-8.4679,10.0547c-3.6301,2.4197-7.5889,3.6292-11.878,3.6292
		C405.287,65.7349,402.019,65.0756,399.2535,63.7555z"/>
	<path id="logo-palavras-office" class="st0" d="M153.4866,31.4312c0,2.6135-0.2299,5.1984-0.7039,7.7544
		c-0.4881,2.5705-1.163,5.0403-2.0675,7.4243c-0.8907,2.3833-1.9962,4.6525-3.303,6.7776c-1.3067,2.1399-2.7859,4.0496-4.437,5.7728
		c-1.3499,1.3929-2.8004,2.6708-4.3799,3.8055c-1.5653,1.1344-3.2456,2.0962-5.0405,2.9007
		c-1.7949,0.8042-3.7191,1.4071-5.7728,1.8235c-2.0389,0.4311-4.2361,0.6321-6.6053,0.6321c-3.7769,0-7.1943-0.6466-10.2098-1.9533
		c-3.03-1.3068-5.6149-3.1017-7.7258-5.3847c-2.1252-2.2833-3.7335-4.9975-4.8538-8.1423
		c-1.1344-3.1447-1.6943-6.548-1.6943-10.2242c0-5.8301,0.9479-11.0569,2.8432-15.6955c1.8955-4.6239,4.5377-8.6303,7.9265-12.0192
		c2.7573-2.7569,5.9307-4.9396,9.5352-6.548c3.6042-1.6081,7.6969-2.4267,12.2632-2.4267c3.7052,0,7.0509,0.6315,10.0378,1.8952
		c2.9869,1.2637,5.5287,3.03,7.6249,5.2991c2.1113,2.283,3.7338,4.9683,4.8682,8.0844
		C152.9262,24.3233,153.4866,27.7266,153.4866,31.4312L153.4866,31.4312z M146.0051,31.6755c0-3.0013-0.4022-5.6865-1.2206-8.0705
		c-0.8186-2.3836-1.9817-4.4229-3.4897-6.1027c-1.5222-1.6801-3.3458-2.9727-5.4709-3.863
		c-2.1254-0.9046-4.5091-1.3499-7.1512-1.3499c-3.1162,0-6.0886,0.6752-8.9175,2.0106c-2.829,1.3499-5.3422,3.2165-7.5391,5.6004
		c-1.2206,1.3496-2.3408,2.8863-3.3315,4.6239c-1.0052,1.7373-1.8525,3.5898-2.5702,5.5573
		c-0.7183,1.9673-1.264,4.0062-1.6376,6.1461c-0.3875,2.1251-0.574,4.2936-0.574,6.476c0,2.8004,0.3875,5.385,1.1631,7.74
		c0.7608,2.355,1.881,4.3798,3.3601,6.0744c1.4647,1.709,3.2882,3.0299,5.4426,3.9776c2.1682,0.962,4.6525,1.436,7.4528,1.436
		c3.1159,0,6.0886-0.6318,8.9317-1.8666c2.8576-1.2495,5.3564-3.102,7.5101-5.5432c1.3499-1.5077,2.5277-3.2023,3.5184-5.0689
		c0.9907-1.8666,1.8238-3.791,2.4984-5.8014c0.6752-2.0106,1.1775-4.0351,1.5222-6.074
		C145.8328,35.5239,146.0051,33.5566,146.0051,31.6755L146.0051,31.6755z M186.2338,9.4749
		c-0.2729-0.1437-0.6176-0.2727-1.0054-0.402c-0.402-0.1292-0.8187-0.244-1.2637-0.3588c-0.445-0.1151-0.9187-0.2013-1.4074-0.273
		c-0.4881-0.0717-0.9618-0.1004-1.4071-0.1004c-2.2975,0-4.0782,0.7464-5.3275,2.24c-1.2492,1.5077-2.1971,3.7338-2.8431,6.7206
		l-1.5508,6.8925H181.61l-1.393,5.8444h-10.1812l-8.1819,38.2839h-6.9676l8.2565-38.2839h-7.4095l1.3068-5.8444h7.4095
		l1.7232-7.9983c0.5312-2.4701,1.2781-4.5666,2.2257-6.3039c0.9479-1.7377,2.0824-3.1592,3.4036-4.2506
		c1.3209-1.0916,2.8145-1.8958,4.4801-2.3984c1.6801-0.5023,3.5037-0.7608,5.4998-0.7608c1.0338,0,2.0534,0.0862,3.0444,0.2585
		c0.9907,0.1721,1.838,0.3589,2.5416,0.5885L186.2338,9.4749L186.2338,9.4749z M211.6861,9.4749l1.1342-6.1461
		c-0.7036-0.2296-1.5509-0.4164-2.5416-0.5885c-0.991-0.1723-2.0106-0.2585-3.0441-0.2585c-1.9965,0-3.82,0.2585-5.5001,0.7608
		c-1.6656,0.5026-3.1592,1.3068-4.4801,2.3984c-1.3213,1.0914-2.4557,2.5129-3.4036,4.2506
		c-0.9476,1.7373-1.6945,3.8338-2.2258,6.3039l-1.7229,7.9983h-7.4097l-1.3068,5.8444h7.4098l-8.2565,38.2839h6.9676l8.1816-38.2839
		h10.1812l1.3929-5.8444H196.881l1.5509-6.8925c0.646-2.9868,1.5939-5.2129,2.8431-6.7206c1.2493-1.4936,3.03-2.24,5.3275-2.24
		c0.4453,0,0.9192,0.0287,1.4074,0.1004c0.4884,0.0717,0.962,0.1579,1.4071,0.273c0.445,0.1148,0.8617,0.2296,1.2637,0.3588
		C211.0684,9.2022,211.4131,9.3312,211.6861,9.4749L211.6861,9.4749z M218.3844,67.1012c-0.7036,0.2299-1.4936,0.4164-2.384,0.5457
		c-0.8759,0.1437-1.7518,0.2154-2.6277,0.2154c-2.8287,0-4.9544-0.7035-6.3473-2.1251c-1.4071-1.4216-2.1107-3.3171-2.1107-5.701
		c0-0.7036,0.0717-1.5222,0.2154-2.4843c0.1435-0.9476,0.3589-2.1252,0.6747-3.5326l6.2612-29.8255h6.993l-6.3181,29.9979
		c-0.2441,1.1775-0.4309,2.082-0.5171,2.7283c-0.1003,0.6463-0.1578,1.192-0.1578,1.6515c0,1.1489,0.316,2.0245,0.9476,2.628
		c0.6321,0.6029,1.637,0.9045,3.0155,0.9045c0.7324,0,1.3643-0.043,1.9102-0.1292c0.5454-0.0862,1.0625-0.2155,1.5364-0.3878
		L218.3844,67.1012L218.3844,67.1012z M223.3096,8.843c0,1.2637-0.4306,2.3409-1.2923,3.231
		c-0.847,0.9048-1.9097,1.3498-3.1737,1.3498c-1.2348,0-2.3117-0.445-3.2165-1.3209c-0.919-0.8904-1.3643-1.9817-1.3643-3.2599
		c0-1.2923,0.4453-2.3405,1.3643-3.1589c0.9048-0.8186,1.9817-1.2209,3.2165-1.2209c1.235,0,2.2836,0.4164,3.1592,1.2351
		C222.8645,6.5311,223.3096,7.5793,223.3096,8.843L223.3096,8.843z M257.8378,32.738c-1.1778-1.048-2.5993-1.9242-4.265-2.6278
		c-1.6656-0.718-3.5181-1.0768-5.5287-1.0768c-1.9386,0-3.6904,0.3299-5.2412,1.0048c-1.5509,0.675-2.9438,1.5798-4.15,2.6998
		c-1.2064,1.1202-2.2402,2.4125-3.1016,3.8627c-0.8762,1.465-1.5939,2.9727-2.1544,4.5522
		c-0.5598,1.5653-0.9765,3.1303-1.235,4.6814c-0.2727,1.565-0.402,3.0155-0.402,4.3509c0,4.0209,0.8762,7.0651,2.6425,9.1332
		c1.7804,2.0821,4.1788,3.1162,7.2374,3.1162c1.8522,0,3.7763-0.3881,5.7728-1.1634c1.9814-0.7611,3.8625-1.7518,5.629-2.9582
		l-1.4647,6.893c-1.824,0.9907-3.6476,1.7518-5.4569,2.2975c-1.8094,0.5456-3.7194,0.8186-5.7439,0.8186
		c-2.628,0-4.9255-0.4456-6.8785-1.3498c-1.9386-0.8907-3.5612-2.1255-4.8535-3.6907c-1.2926-1.5798-2.2547-3.432-2.9007-5.5863
		c-0.6466-2.1393-0.9624-4.4657-0.9624-6.9497c0-2.3553,0.2296-4.6817,0.7039-6.9647c0.4881-2.2833,1.192-4.4515,2.1251-6.4766
		c0.9479-2.039,2.0968-3.92,3.4753-5.6574c1.3785-1.7524,2.9582-3.2457,4.7387-4.4804c1.7804-1.2493,3.7621-2.2403,5.9451-2.958
		c2.1824-0.7038,4.5663-1.0627,7.1081-1.0627c1.2062,0,2.3548,0.0859,3.4461,0.2441c1.1058,0.172,2.0968,0.4019,2.9869,0.6746
		c0.9048,0.2874,1.7087,0.5891,2.3984,0.9048c0.7032,0.3303,1.2637,0.646,1.6942,0.9479L257.8378,32.738L257.8378,32.738z
		 M296.8318,34.2888c0,2.2688-0.5029,4.3367-1.5222,6.2036c-1.0055,1.8669-2.6711,3.4608-4.9975,4.7962
		c-2.3406,1.3354-5.3994,2.3695-9.2188,3.1017c-3.82,0.7183-8.5301,1.1058-14.1305,1.1344
		c-0.0572,0.3016-0.0861,0.6319-0.0861,0.9624c0,0.3158,0,0.5885,0,0.847c0,1.5077,0.2009,2.9438,0.6321,4.2792
		c0.4164,1.3498,1.0624,2.5276,1.9528,3.547c0.8759,1.0051,2.0245,1.8093,3.4033,2.3981c1.3929,0.5887,3.0441,0.8762,4.9399,0.8762
		c1.9386,0,4.0637-0.3736,6.3757-1.1203c2.3122-0.7325,4.5232-1.7949,6.6342-3.1734l-1.3065,6.8207
		c-1.5508,0.8904-3.3749,1.6804-5.5142,2.3551c-2.1255,0.6749-4.5091,1.0054-7.1513,1.0054c-3.1737,0-5.8447-0.4887-8.0132-1.4649
		c-2.168-0.9907-3.9201-2.2975-5.2555-3.9345c-1.3354-1.6515-2.2977-3.5326-2.8862-5.6866
		c-0.5891-2.1396-0.8762-4.3943-0.8762-6.749c0-2.5274,0.2727-4.9544,0.8331-7.295c0.5598-2.3408,1.3499-4.5235,2.3834-6.5483
		c1.0196-2.01,2.2405-3.8628,3.6762-5.5284c1.436-1.6659,3.0158-3.0875,4.7532-4.265c1.7376-1.1772,3.6045-2.0965,5.6004-2.7428
		c1.9817-0.646,4.0495-0.9618,6.1747-0.9618c2.226,0,4.1788,0.2872,5.8734,0.8756c1.6942,0.5891,3.1158,1.393,4.2505,2.427
		c1.1344,1.0197,1.9962,2.1972,2.5846,3.5468C296.5299,31.345,296.8318,32.781,296.8318,34.2888L296.8318,34.2888z
		 M289.7953,34.6338c0-1.781-0.6465-3.1454-1.9533-4.1358c-1.3065-0.9765-3.0297-1.4646-5.1979-1.4646
		c-1.709,0-3.3602,0.373-4.9544,1.1199c-1.6084,0.7322-3.073,1.7663-4.4229,3.0586c-1.3496,1.3068-2.5129,2.8721-3.4894,4.6814
		c-0.9766,1.8094-1.6943,3.7622-2.1538,5.859c4.0207,0,7.4239-0.2013,10.2243-0.6035c2.8145-0.4164,5.0975-1.0049,6.8638-1.7949
		c1.7665-0.7753,3.0586-1.7374,3.863-2.8721C289.3934,37.3477,289.7953,36.0553,289.7953,34.6338z"/>
</g>
<path id="simbolo" class="st0" d="M45.6691,2.4818c-23.4833,0-42.5196,19.0363-42.5196,42.5197
	c0,23.4833,19.0363,42.5197,42.5196,42.5197c23.4832,0,42.5197-19.0364,42.5197-42.5197
	C88.1888,21.5181,69.1522,2.4818,45.6691,2.4818z M11.21,40.2104c-0.8914-12.3322,11.6485-8.2976,25.922-1.3765
	c-1.1693,1.218-2.2399,2.5013-3.3026,3.8041c-13.1366-6.509-22.1227-10.3374-18.8102,2.9154
	c0.91,3.6402,2.3568,6.0426,4.1772,9.2157C16.0389,51.8863,11.6171,45.8397,11.21,40.2104z M75.8505,61.1723
	c-5.8438,2.046-17.2029-3.928-28.6807-10.7507c1.2532-1.6044,2.5988-2.9766,4.0578-4.3738
	c8.9175,4.6406,17.0104,8.684,21.3607,8.7678c0.1551-4.3047-0.5921-12.5731-4.2278-16.3273l0.0011-0.0005
	c-0.9689-1.001-2.143-1.6816-3.5603-1.8799c-7.0627-0.9898-14.1341,5.0107-18.5825,9.9916
	c-3.2431,3.6331-6.3074,8.0217-8.7877,12.1929c-1.1061,2.3054-3.8719,3.2774-6.1773,2.1714
	c-2.3054-1.1064-3.2771-3.8719-2.171-6.1773c2.7473-4.3421,5.8212-8.6939,9.2375-12.5436
	c6.5758-7.4131,15.3559-13.2063,25.6825-13.7038c11.3164-0.5451,14.3691,11.49,15.3535,16.5515
	C80.3411,50.152,80.8777,59.4123,75.8505,61.1723z"/>
</svg>
